UART/UART_emission/output.vcd
$date
   Mon Jan 20 12:51:55 2025
$end
$version
  P.20131013
$end
$timescale
  1ps
$end
$scope module rxunittest $end
$var wire 1 a clk $end
$var wire 1 b reset $end
$var wire 1 F enable $end
$var wire 1 N read $end
$var wire 1 H rxd $end
$var wire 1 [ data [7] $end
$var wire 1 Z data [6] $end
$var wire 1 Y data [5] $end
$var wire 1 X data [4] $end
$var wire 1 W data [3] $end
$var wire 1 V data [2] $end
$var wire 1 U data [1] $end
$var wire 1 T data [0] $end
$var wire 1 Q ferr $end
$var wire 1 R oerr $end
$var wire 1 S drdy $end
$var wire 1 c enabletx $end
$var wire 1 ` enablerx $end
$scope module uut $end
$var wire 1 a clk $end
$var wire 1 b reset $end
$var wire 1 F enable $end
$var wire 1 N read $end
$var wire 1 H rxd $end
$var wire 1 [ data [7] $end
$var wire 1 Z data [6] $end
$var wire 1 Y data [5] $end
$var wire 1 X data [4] $end
$var wire 1 W data [3] $end
$var wire 1 V data [2] $end
$var wire 1 U data [1] $end
$var wire 1 T data [0] $end
$var wire 1 Q ferr $end
$var wire 1 R oerr $end
$var wire 1 S drdy $end
$var wire 1 L tmpclkinter $end
$var wire 1 M tmprxdinter $end
$scope module Inst_Compteur16 $end
$var wire 1 F enable $end
$var wire 1 b reset $end
$var wire 1 H rxd $end
$var wire 1 L tmpclk $end
$var wire 1 M tmprxd $end
$upscope $end
$scope module Inst_ControledeReception $end
$var wire 1 L tmpclk $end
$var wire 1 M tmprxd $end
$var wire 1 N read $end
$var wire 1 b reset $end
$var wire 1 a clk $end
$var wire 1 Q ferr $end
$var wire 1 R oerr $end
$var wire 1 S drdy $end
$var wire 1 [ data [7] $end
$var wire 1 Z data [6] $end
$var wire 1 Y data [5] $end
$var wire 1 X data [4] $end
$var wire 1 W data [3] $end
$var wire 1 V data [2] $end
$var wire 1 U data [1] $end
$var wire 1 T data [0] $end
$upscope $end
$upscope $end
$scope module Inst_clkUnit $end
$var wire 1 a clk $end
$var wire 1 b reset $end
$var wire 1 c enabletx $end
$var wire 1 ` enablerx $end
$scope module Inst_diviseurClk $end
$var wire 1 a clk $end
$var wire 1 b reset $end
$var wire 1 c nclk $end
$var wire 1 d top $end
$upscope $end
$upscope $end
$upscope $end
$enddefinitions $end
#0
$dumpvars
0b
0a
0F
0N
0H
0[
0Z
0Y
0X
0W
0V
0U
0T
0Q
0R
0S
0c
0`
0L
1M
0d
$end
#5000
1a
#10000
0a
#15000
1a
#20000
0a
#25000
1a
#30000
0a
#35000
1a
#40000
0a
#45000
1a
#50000
0a
#55000
1a
#60000
0a
#65000
1a
#70000
0a
#75000
1a
#80000
0a
#85000
1a
#90000
0a
#95000
1a
#100000
1b
0a
1H
#105000
1a
1`
#110000
0a
0`
#115000
1a
1`
#120000
0a
0`
#125000
1a
1`
#130000
0a
0`
#135000
1a
1`
#140000
0a
0`
#145000
1a
1`
#150000
0a
0`
#155000
1a
1`
#160000
0a
0`
#165000
1a
1`
#170000
0a
0`
#175000
1a
1`
#180000
0a
0`
#185000
1a
1`
#190000
0a
0`
#195000
1a
1`
#200000
0a
0`
#205000
1a
1`
#210000
0a
0`
#215000
1a
1`
#220000
0a
0`
#225000
1a
1`
#230000
0a
0`
#235000
1a
1`
#240000
0a
0`
#245000
1a
1`
#250000
0a
0`
#255000
1a
0H
1c
1`
#260000
0a
0`
#265000
1a
0c
1`
#270000
0a
0`
#275000
1a
1`
#280000
0a
0`
#285000
1a
1`
#290000
0a
0`
#295000
1a
1`
#300000
0a
0`
#305000
1a
1`
#310000
0a
0`
#315000
1a
1`
#320000
0a
0`
#325000
1a
1`
#330000
0a
0`
#335000
1a
1`
#340000
0a
0`
#345000
1a
1`
#350000
0a
0`
#355000
1a
1`
#360000
0a
0`
#365000
1a
1`
#370000
0a
0`
#375000
1a
1`
#380000
0a
0`
#385000
1a
1`
#390000
0a
0`
#395000
1a
1`
#400000
0a
0`
#405000
1a
1`
#410000
0a
0`
#415000
1a
1c
1`
#420000
0a
0`
#425000
1a
0c
1`
#430000
0a
0`
#435000
1a
1`
#440000
0a
0`
#445000
1a
1`
#450000
0a
0`
#455000
1a
1`
#460000
0a
0`
#465000
1a
1`
#470000
0a
0`
#475000
1a
1`
#480000
0a
0`
#485000
1a
1`
#490000
0a
0`
#495000
1a
1`
#500000
0a
0`
#505000
1a
1`
#510000
0a
0`
#515000
1a
1`
#520000
0a
0`
#525000
1a
1`
#530000
0a
0`
#535000
1a
1`
#540000
0a
0`
#545000
1a
1`
#550000
0a
0`
#555000
1a
1`
#560000
0a
0`
#565000
1a
1`
#570000
0a
0`
#575000
1a
1H
1c
1`
#580000
0a
0`
#585000
1a
0c
1`
#590000
0a
0`
#595000
1a
1`
#600000
0a
0`
#605000
1a
1`
#610000
0a
0`
#615000
1a
1`
#620000
0a
0`
#625000
1a
1`
#630000
0a
0`
#635000
1a
1`
#640000
0a
0`
#645000
1a
1`
#650000
0a
0`
#655000
1a
1`
#660000
0a
0`
#665000
1a
1`
#670000
0a
0`
#675000
1a
1`
#680000
0a
0`
#685000
1a
1`
#690000
0a
0`
#695000
1a
1`
#700000
0a
0`
#705000
1a
1`
#710000
0a
0`
#715000
1a
1`
#720000
0a
0`
#725000
1a
1`
#730000
0a
0`
#735000
1a
0H
1c
1`
#740000
0a
0`
#745000
1a
0c
1`
#750000
0a
0`
#755000
1a
1`
#760000
0a
0`
#765000
1a
1`
#770000
0a
0`
#775000
1a
1`
#780000
0a
0`
#785000
1a
1`
#790000
0a
0`
#795000
1a
1`
#800000
0a
0`
#805000
1a
1`
#810000
0a
0`
#815000
1a
1`
#820000
0a
0`
#825000
1a
1`
#830000
0a
0`
#835000
1a
1`
#840000
0a
0`
#845000
1a
1`
#850000
0a
0`
#855000
1a
1`
#860000
0a
0`
#865000
1a
1`
#870000
0a
0`
#875000
1a
1`
#880000
0a
0`
#885000
1a
1`
#890000
0a
0`
#895000
1a
1H
1c
1`
#900000
0a
0`
#905000
1a
0c
1`
#910000
0a
0`
#915000
1a
1`
#920000
0a
0`
#925000
1a
1`
#930000
0a
0`
#935000
1a
1`
#940000
0a
0`
#945000
1a
1`
#950000
0a
0`
#955000
1a
1`
#960000
0a
0`
#965000
1a
1`
#970000
0a
0`
#975000
1a
1`
#980000
0a
0`
#985000
1a
1`
#990000
0a
0`
#995000
1a
1`
#1000000
0a
0`
#1005000
1a
1`
#1010000
0a
0`
#1015000
1a
1`
#1020000
0a
0`
#1025000
1a
1`
#1030000
0a
0`
#1035000
1a
1`
#1040000
0a
0`
#1045000
1a
1`
#1050000
0a
0`
#1055000
1a
0H
1c
1`
#1060000
0a
0`
#1065000
1a
0c
1`
#1070000
0a
0`
#1075000
1a
1`
#1080000
0a
0`
#1085000
1a
1`
#1090000
0a
0`
#1095000
1a
1`
#1100000
0a
0`
#1105000
1a
1`
#1110000
0a
0`
#1115000
1a
1`
#1120000
0a
0`
#1125000
1a
1`
#1130000
0a
0`
#1135000
1a
1`
#1140000
0a
0`
#1145000
1a
1`
#1150000
0a
0`
#1155000
1a
1`
#1160000
0a
0`
#1165000
1a
1`
#1170000
0a
0`
#1175000
1a
1`
#1180000
0a
0`
#1185000
1a
1`
#1190000
0a
0`
#1195000
1a
1`
#1200000
0a
0`
#1205000
1a
1`
#1210000
0a
0`
#1215000
1a
1H
1c
1`
#1220000
0a
0`
#1225000
1a
0c
1`
#1230000
0a
0`
#1235000
1a
1`
#1240000
0a
0`
#1245000
1a
1`
#1250000
0a
0`
#1255000
1a
1`
#1260000
0a
0`
#1265000
1a
1`
#1270000
0a
0`
#1275000
1a
1`
#1280000
0a
0`
#1285000
1a
1`
#1290000
0a
0`
#1295000
1a
1`
#1300000
0a
0`
#1305000
1a
1`
#1310000
0a
0`
#1315000
1a
1`
#1320000
0a
0`
#1325000
1a
1`
#1330000
0a
0`
#1335000
1a
1`
#1340000
0a
0`
#1345000
1a
1`
#1350000
0a
0`
#1355000
1a
1`
#1360000
0a
0`
#1365000
1a
1`
#1370000
0a
0`
#1375000
1a
0H
1c
1`
#1380000
0a
0`
#1385000
1a
0c
1`
#1390000
0a
0`
#1395000
1a
1`
#1400000
0a
0`
#1405000
1a
1`
#1410000
0a
0`
#1415000
1a
1`
#1420000
0a
0`
#1425000
1a
1`
#1430000
0a
0`
#1435000
1a
1`
#1440000
0a
0`
#1445000
1a
1`
#1450000
0a
0`
#1455000
1a
1`
#1460000
0a
0`
#1465000
1a
1`
#1470000
0a
0`
#1475000
1a
1`
#1480000
0a
0`
#1485000
1a
1`
#1490000
0a
0`
#1495000
1a
1`
#1500000
0a
0`
#1505000
1a
1`
#1510000
0a
0`
#1515000
1a
1`
#1520000
0a
0`
#1525000
1a
1`
#1530000
0a
0`
#1535000
1a
1H
1c
1`
#1540000
0a
0`
#1545000
1a
0c
1`
#1550000
0a
0`
#1555000
1a
1`
#1560000
0a
0`
#1565000
1a
1`
#1570000
0a
0`
#1575000
1a
1`
#1580000
0a
0`
#1585000
1a
1`
#1590000
0a
0`
#1595000
1a
1`
#1600000
0a
0`
#1605000
1a
1`
#1610000
0a
0`
#1615000
1a
1`
#1620000
0a
0`
#1625000
1a
1`
#1630000
0a
0`
#1635000
1a
1`
#1640000
0a
0`
#1645000
1a
1`
#1650000
0a
0`
#1655000
1a
1`
#1660000
0a
0`
#1665000
1a
1`
#1670000
0a
0`
#1675000
1a
1`
#1680000
0a
0`
#1685000
1a
1`
#1690000
0a
0`
#1695000
1a
1c
1`
