Joystick/OpL/output.vcd
$date
   Sat Nov 23 23:26:37 2024
$end
$version
  P.20131013
$end
$timescale
  1ps
$end
$scope module testopl $end
$var wire 1 9! clk $end
$var wire 1 8! rst $end
$var wire 1 S en $end
$var wire 1 [ v1 [7] $end
$var wire 1 Z v1 [6] $end
$var wire 1 Y v1 [5] $end
$var wire 1 X v1 [4] $end
$var wire 1 W v1 [3] $end
$var wire 1 V v1 [2] $end
$var wire 1 U v1 [1] $end
$var wire 1 T v1 [0] $end
$var wire 1 c v2 [7] $end
$var wire 1 b v2 [6] $end
$var wire 1 a v2 [5] $end
$var wire 1 ` v2 [4] $end
$var wire 1 _ v2 [3] $end
$var wire 1 ^ v2 [2] $end
$var wire 1 ] v2 [1] $end
$var wire 1 \ v2 [0] $end
$var wire 1 R! miso $end
$var wire 1 S! ss $end
$var wire 1 P! sclk $end
$var wire 1 Q! mosi $end
$var wire 1 o val_xor [7] $end
$var wire 1 n val_xor [6] $end
$var wire 1 m val_xor [5] $end
$var wire 1 l val_xor [4] $end
$var wire 1 k val_xor [3] $end
$var wire 1 j val_xor [2] $end
$var wire 1 i val_xor [1] $end
$var wire 1 h val_xor [0] $end
$var wire 1 w val_and [7] $end
$var wire 1 v val_and [6] $end
$var wire 1 u val_and [5] $end
$var wire 1 t val_and [4] $end
$var wire 1 s val_and [3] $end
$var wire 1 r val_and [2] $end
$var wire 1 q val_and [1] $end
$var wire 1 p val_and [0] $end
$var wire 1 !! val_or [7] $end
$var wire 1 ~ val_or [6] $end
$var wire 1 } val_or [5] $end
$var wire 1 | val_or [4] $end
$var wire 1 { val_or [3] $end
$var wire 1 z val_or [2] $end
$var wire 1 y val_or [1] $end
$var wire 1 x val_or [0] $end
$var wire 1 "! busy $end
$scope module uut_master $end
$var wire 1 8! rst $end
$var wire 1 9! clk $end
$var wire 1 S en $end
$var wire 1 [ v1 [7] $end
$var wire 1 Z v1 [6] $end
$var wire 1 Y v1 [5] $end
$var wire 1 X v1 [4] $end
$var wire 1 W v1 [3] $end
$var wire 1 V v1 [2] $end
$var wire 1 U v1 [1] $end
$var wire 1 T v1 [0] $end
$var wire 1 c v2 [7] $end
$var wire 1 b v2 [6] $end
$var wire 1 a v2 [5] $end
$var wire 1 ` v2 [4] $end
$var wire 1 _ v2 [3] $end
$var wire 1 ^ v2 [2] $end
$var wire 1 ] v2 [1] $end
$var wire 1 \ v2 [0] $end
$var wire 1 R! miso $end
$var wire 1 S! ss $end
$var wire 1 P! sclk $end
$var wire 1 Q! mosi $end
$var wire 1 o val_xor [7] $end
$var wire 1 n val_xor [6] $end
$var wire 1 m val_xor [5] $end
$var wire 1 l val_xor [4] $end
$var wire 1 k val_xor [3] $end
$var wire 1 j val_xor [2] $end
$var wire 1 i val_xor [1] $end
$var wire 1 h val_xor [0] $end
$var wire 1 w val_and [7] $end
$var wire 1 v val_and [6] $end
$var wire 1 u val_and [5] $end
$var wire 1 t val_and [4] $end
$var wire 1 s val_and [3] $end
$var wire 1 r val_and [2] $end
$var wire 1 q val_and [1] $end
$var wire 1 p val_and [0] $end
$var wire 1 !! val_or [7] $end
$var wire 1 ~ val_or [6] $end
$var wire 1 } val_or [5] $end
$var wire 1 | val_or [4] $end
$var wire 1 { val_or [3] $end
$var wire 1 z val_or [2] $end
$var wire 1 y val_or [1] $end
$var wire 1 x val_or [0] $end
$var wire 1 "! busy $end
$var wire 1 :! en_er $end
$var wire 1 N! er_busy $end
$var wire 1 M! er_dout [7] $end
$var wire 1 L! er_dout [6] $end
$var wire 1 K! er_dout [5] $end
$var wire 1 J! er_dout [4] $end
$var wire 1 I! er_dout [3] $end
$var wire 1 H! er_dout [2] $end
$var wire 1 G! er_dout [1] $end
$var wire 1 F! er_dout [0] $end
$var wire 1 B! din [7] $end
$var wire 1 A! din [6] $end
$var wire 1 @! din [5] $end
$var wire 1 ?! din [4] $end
$var wire 1 >! din [3] $end
$var wire 1 =! din [2] $end
$var wire 1 <! din [1] $end
$var wire 1 ;! din [0] $end
$scope module er_inst $end
$var wire 1 8! rst $end
$var wire 1 9! clk $end
$var wire 1 :! en $end
$var wire 1 B! din [7] $end
$var wire 1 A! din [6] $end
$var wire 1 @! din [5] $end
$var wire 1 ?! din [4] $end
$var wire 1 >! din [3] $end
$var wire 1 =! din [2] $end
$var wire 1 <! din [1] $end
$var wire 1 ;! din [0] $end
$var wire 1 R! miso $end
$var wire 1 P! sclk $end
$var wire 1 Q! mosi $end
$var wire 1 M! dout [7] $end
$var wire 1 L! dout [6] $end
$var wire 1 K! dout [5] $end
$var wire 1 J! dout [4] $end
$var wire 1 I! dout [3] $end
$var wire 1 H! dout [2] $end
$var wire 1 G! dout [1] $end
$var wire 1 F! dout [0] $end
$var wire 1 N! busy $end
$upscope $end
$upscope $end
$scope module uut_slave $end
$var wire 1 P! sclk $end
$var wire 1 Q! mosi $end
$var wire 1 R! miso $end
$var wire 1 S! ss $end
$var wire 1 [! v1 [7] $end
$var wire 1 Z! v1 [6] $end
$var wire 1 Y! v1 [5] $end
$var wire 1 X! v1 [4] $end
$var wire 1 W! v1 [3] $end
$var wire 1 V! v1 [2] $end
$var wire 1 U! v1 [1] $end
$var wire 1 T! v1 [0] $end
$var wire 1 c! v2 [7] $end
$var wire 1 b! v2 [6] $end
$var wire 1 a! v2 [5] $end
$var wire 1 `! v2 [4] $end
$var wire 1 _! v2 [3] $end
$var wire 1 ^! v2 [2] $end
$var wire 1 ]! v2 [1] $end
$var wire 1 \! v2 [0] $end
$var wire 1 k! val_xor [7] $end
$var wire 1 j! val_xor [6] $end
$var wire 1 i! val_xor [5] $end
$var wire 1 h! val_xor [4] $end
$var wire 1 g! val_xor [3] $end
$var wire 1 f! val_xor [2] $end
$var wire 1 e! val_xor [1] $end
$var wire 1 d! val_xor [0] $end
$var wire 1 s! val_and [7] $end
$var wire 1 r! val_and [6] $end
$var wire 1 q! val_and [5] $end
$var wire 1 p! val_and [4] $end
$var wire 1 o! val_and [3] $end
$var wire 1 n! val_and [2] $end
$var wire 1 m! val_and [1] $end
$var wire 1 l! val_and [0] $end
$var wire 1 {! val_or [7] $end
$var wire 1 z! val_or [6] $end
$var wire 1 y! val_or [5] $end
$var wire 1 x! val_or [4] $end
$var wire 1 w! val_or [3] $end
$var wire 1 v! val_or [2] $end
$var wire 1 u! val_or [1] $end
$var wire 1 t! val_or [0] $end
$upscope $end
$upscope $end
$enddefinitions $end
#0
$dumpvars
08!
09!
0S
x[
xZ
xY
xX
xW
xV
xU
xT
xc
xb
xa
x`
x_
x^
x]
x\
xR!
1S!
1P!
xQ!
xo
xn
xm
xl
xk
xj
xi
xh
xw
xv
xu
xt
xs
xr
xq
xp
x!!
x~
x}
x|
x{
xz
xy
xx
0"!
x:!
0N!
xM!
xL!
xK!
xJ!
xI!
xH!
xG!
xF!
xB!
xA!
x@!
x?!
x>!
x=!
x<!
x;!
x[!
xZ!
xY!
xX!
xW!
xV!
xU!
xT!
xc!
xb!
xa!
x`!
x_!
x^!
x]!
x\!
0k!
0j!
1i!
1h!
0g!
0f!
1e!
1d!
1s!
0r!
1q!
0p!
0o!
0n!
0m!
0l!
1{!
1z!
0y!
0x!
1w!
1v!
0u!
0t!
$end
#5000
19!
#10000
09!
#15000
19!
#20000
09!
#25000
19!
#30000
09!
#35000
19!
#40000
09!
#45000
19!
#50000
09!
#55000
19!
#60000
09!
#65000
19!
#70000
09!
#75000
19!
#80000
09!
#85000
19!
#90000
09!
#95000
19!
#100000
18!
09!
1S
1[
0Z
1Y
0X
1W
0V
1U
0T
1c
1b
0a
0`
1_
1^
0]
0\
#105000
19!
0S!
1"!
#110000
09!
#115000
19!
#120000
09!
#125000
19!
#130000
09!
#135000
19!
#140000
09!
#145000
19!
#150000
09!
#155000
19!
#160000
09!
#165000
19!
#170000
09!
#175000
19!
#180000
09!
#185000
19!
#190000
09!
#195000
19!
#200000
09!
#205000
19!
#210000
09!
#215000
19!
1:!
1B!
0A!
1@!
0?!
1>!
0=!
1<!
0;!
#220000
09!
#225000
19!
0R!
0P!
1Q!
0:!
1N!
#230000
09!
#235000
19!
1P!
1[!
#240000
09!
#245000
19!
0P!
0Q!
#250000
09!
#255000
19!
1P!
0Z!
#260000
09!
#265000
19!
1R!
0P!
1Q!
#270000
09!
#275000
19!
1P!
1Y!
#280000
09!
#285000
19!
0P!
0Q!
#290000
09!
#295000
19!
1P!
0X!
#300000
09!
#305000
19!
0R!
0P!
1Q!
#310000
09!
#315000
19!
1P!
1W!
#320000
09!
#325000
19!
0P!
0Q!
#330000
09!
#335000
19!
1P!
0V!
#340000
09!
#345000
19!
1R!
0P!
1Q!
#350000
09!
#355000
19!
1P!
1U!
#360000
09!
#365000
19!
0P!
0Q!
#370000
09!
#375000
19!
1P!
0N!
0M!
0L!
1K!
1J!
0I!
0H!
1G!
1F!
0T!
#380000
09!
#385000
19!
0o
0n
1m
1l
0k
0j
1i
1h
#390000
09!
#395000
19!
#400000
09!
#405000
19!
#410000
09!
#415000
19!
#420000
09!
#425000
19!
1:!
1A!
0@!
1=!
0<!
#430000
09!
#435000
19!
0P!
1Q!
0:!
1N!
#440000
09!
#445000
19!
1P!
1c!
#450000
09!
#455000
19!
0R!
0P!
#460000
09!
#465000
19!
1P!
1b!
#470000
09!
#475000
19!
1R!
0P!
0Q!
#480000
09!
#485000
19!
1P!
0a!
#490000
09!
#495000
19!
0R!
0P!
#500000
09!
#505000
19!
1P!
0`!
#510000
09!
#515000
19!
0P!
1Q!
#520000
09!
#525000
19!
1P!
1_!
#530000
09!
#535000
19!
0P!
#540000
09!
#545000
19!
1P!
1^!
#550000
09!
#555000
19!
0P!
0Q!
#560000
09!
#565000
19!
1P!
0]!
#570000
09!
#575000
19!
0P!
#580000
09!
#585000
19!
1P!
0N!
1M!
0J!
0G!
0F!
0\!
#590000
09!
#595000
19!
1w
0v
1u
0t
0s
0r
0q
0p
#600000
09!
#605000
19!
#610000
09!
#615000
19!
#620000
09!
#625000
19!
#630000
09!
#635000
19!
1:!
xB!
xA!
x@!
x?!
x>!
x=!
x<!
x;!
#640000
09!
#645000
19!
1R!
0P!
xQ!
0:!
1N!
#650000
09!
#655000
19!
1P!
#660000
09!
#665000
19!
0P!
#670000
09!
#675000
19!
1P!
#680000
09!
#685000
19!
0R!
0P!
#690000
09!
#695000
19!
1P!
#700000
09!
#705000
19!
0P!
#710000
09!
#715000
19!
1P!
#720000
09!
#725000
19!
1R!
0P!
#730000
09!
#735000
19!
1P!
#740000
09!
#745000
19!
0P!
#750000
09!
#755000
19!
1P!
#760000
09!
#765000
19!
0R!
0P!
#770000
09!
#775000
19!
1P!
#780000
09!
#785000
19!
0P!
#790000
09!
#795000
19!
1P!
0N!
1L!
0K!
1I!
1H!
1j!
0h!
1f!
0d!
0q!
1o!
1y!
1u!
#800000
09!
#805000
19!
1S!
1!!
1~
0}
0|
1{
1z
0y
0x
0"!
#810000
09!
#815000
19!
0S!
1"!
#820000
09!
#825000
19!
#830000
09!
#835000
19!
#840000
09!
#845000
19!
#850000
09!
#855000
19!
#860000
09!
#865000
19!
#870000
09!
#875000
19!
#880000
09!
#885000
19!
#890000
09!
#895000
19!
#900000
09!
#905000
19!
#910000
09!
#915000
19!
#920000
09!
#925000
19!
1:!
1B!
0A!
1@!
0?!
1>!
0=!
1<!
0;!
#930000
09!
#935000
19!
0P!
1Q!
0:!
1N!
#940000
09!
#945000
19!
1P!
#950000
09!
#955000
19!
1R!
0P!
0Q!
#960000
09!
#965000
19!
1P!
#970000
09!
#975000
19!
0P!
1Q!
#980000
09!
#985000
19!
1P!
#990000
09!
#995000
19!
0R!
0P!
0Q!
#1000000
09!
#1005000
19!
1P!
#1010000
09!
#1015000
19!
0P!
1Q!
#1020000
09!
#1025000
19!
1P!
#1030000
09!
#1035000
19!
1R!
0P!
0Q!
#1040000
09!
#1045000
19!
1P!
#1050000
09!
#1055000
19!
0P!
1Q!
#1060000
09!
#1065000
19!
1P!
#1070000
09!
#1075000
19!
0R!
0P!
0Q!
#1080000
09!
#1085000
19!
1P!
0N!
0M!
1K!
0I!
1G!
#1090000
09!
#1095000
19!
1n
0l
1j
0h
#1100000
09!
#1105000
19!
#1110000
09!
#1115000
19!
#1120000
09!
#1125000
19!
#1130000
09!
#1135000
19!
1:!
1A!
0@!
1=!
0<!
#1140000
09!
#1145000
19!
1R!
0P!
1Q!
0:!
1N!
#1150000
09!
#1155000
19!
1P!
#1160000
09!
#1165000
19!
0R!
0P!
#1170000
09!
#1175000
19!
1P!
#1180000
09!
#1185000
19!
0P!
0Q!
#1190000
09!
#1195000
19!
1P!
#1200000
09!
#1205000
19!
0P!
#1210000
09!
#1215000
19!
1P!
#1220000
09!
#1225000
19!
1R!
0P!
1Q!
#1230000
09!
#1235000
19!
1P!
#1240000
09!
#1245000
19!
0R!
0P!
#1250000
09!
#1255000
19!
1P!
#1260000
09!
#1265000
19!
0P!
0Q!
#1270000
09!
#1275000
19!
1P!
#1280000
09!
#1285000
19!
0P!
#1290000
09!
#1295000
19!
1P!
0N!
1M!
0L!
0K!
1I!
0H!
0G!
#1300000
09!
#1305000
19!
0u
1s
#1310000
09!
#1315000
19!
#1320000
09!
#1325000
19!
#1330000
09!
#1335000
19!
#1340000
09!
#1345000
19!
1:!
xB!
xA!
x@!
x?!
x>!
x=!
x<!
x;!
#1350000
09!
#1355000
19!
1R!
0P!
xQ!
0:!
1N!
#1360000
09!
#1365000
19!
1P!
#1370000
09!
#1375000
19!
0P!
#1380000
09!
#1385000
19!
1P!
#1390000
09!
#1395000
19!
0P!
#1400000
09!
#1405000
19!
1P!
#1410000
09!
#1415000
19!
0R!
0P!
#1420000
09!
#1425000
19!
1P!
#1430000
09!
#1435000
19!
1R!
0P!
#1440000
09!
#1445000
19!
1P!
#1450000
09!
#1455000
19!
0P!
#1460000
09!
#1465000
19!
1P!
#1470000
09!
#1475000
19!
0P!
#1480000
09!
#1485000
19!
1P!
#1490000
09!
#1495000
19!
0R!
0P!
#1500000
09!
#1505000
19!
1P!
0N!
1L!
1K!
1H!
1G!
#1510000
09!
#1515000
19!
1S!
1}
1y
0"!
#1520000
09!
#1525000
19!
0S!
1"!
#1530000
09!
#1535000
19!
#1540000
09!
#1545000
19!
#1550000
09!
#1555000
19!
#1560000
09!
#1565000
19!
#1570000
09!
#1575000
19!
#1580000
09!
#1585000
19!
#1590000
09!
#1595000
19!
#1600000
09!
#1605000
19!
#1610000
09!
#1615000
19!
#1620000
09!
#1625000
19!
#1630000
09!
#1635000
19!
1:!
1B!
0A!
1@!
0?!
1>!
0=!
1<!
0;!
#1640000
09!
#1645000
19!
0P!
1Q!
0:!
1N!
#1650000
09!
#1655000
19!
1P!
#1660000
09!
#1665000
19!
1R!
0P!
0Q!
#1670000
09!
#1675000
19!
1P!
#1680000
09!
#1685000
19!
0P!
1Q!
#1690000
09!
#1695000
19!
1P!
#1700000
09!
#1705000
19!
0R!
0P!
0Q!
#1710000
09!
#1715000
19!
1P!
#1720000
09!
#1725000
19!
0P!
1Q!
#1730000
09!
#1735000
19!
1P!
#1740000
09!
#1745000
19!
1R!
0P!
0Q!
#1750000
09!
#1755000
19!
1P!
#1760000
09!
#1765000
19!
0P!
1Q!
#1770000
09!
#1775000
19!
1P!
#1780000
09!
#1785000
19!
0R!
0P!
0Q!
#1790000
09!
#1795000
19!
1P!
0N!
0M!
0I!
#1800000
09!
#1805000
19!
#1810000
09!
#1815000
19!
#1820000
09!
#1825000
19!
#1830000
09!
#1835000
19!
#1840000
09!
#1845000
19!
1:!
1A!
0@!
1=!
0<!
#1850000
09!
#1855000
19!
0[
0Y
0W
0U
1a
1`
1]
1\
1R!
0P!
1Q!
0:!
1N!
#1860000
09!
#1865000
19!
1P!
#1870000
09!
#1875000
19!
0R!
0P!
#1880000
09!
#1885000
19!
1P!
#1890000
09!
#1895000
19!
0P!
0Q!
#1900000
09!
#1905000
19!
1P!
#1910000
09!
#1915000
19!
0P!
#1920000
09!
#1925000
19!
1P!
#1930000
09!
#1935000
19!
1R!
0P!
1Q!
#1940000
09!
#1945000
19!
1P!
#1950000
09!
#1955000
19!
0R!
0P!
#1960000
09!
#1965000
19!
1P!
#1970000
09!
#1975000
19!
0P!
0Q!
#1980000
09!
#1985000
19!
1P!
#1990000
09!
#1995000
19!
0P!
#2000000
09!
#2005000
19!
1P!
0N!
1M!
0L!
0K!
1I!
0H!
0G!
#2010000
09!
#2015000
19!
#2020000
09!
#2025000
19!
#2030000
09!
#2035000
19!
#2040000
09!
#2045000
19!
#2050000
09!
#2055000
19!
1:!
xB!
xA!
x@!
x?!
x>!
x=!
x<!
x;!
#2060000
09!
#2065000
19!
1R!
0P!
xQ!
0:!
1N!
#2070000
09!
#2075000
19!
1P!
#2080000
09!
#2085000
19!
0P!
#2090000
09!
#2095000
19!
1P!
#2100000
09!
#2105000
19!
0P!
#2110000
09!
#2115000
19!
1P!
#2120000
09!
#2125000
19!
0R!
0P!
#2130000
09!
#2135000
19!
1P!
#2140000
09!
#2145000
19!
1R!
0P!
#2150000
09!
#2155000
19!
1P!
#2160000
09!
#2165000
19!
0P!
#2170000
09!
#2175000
19!
1P!
#2180000
09!
#2185000
19!
0P!
#2190000
09!
#2195000
19!
1P!
#2200000
09!
#2205000
19!
0R!
0P!
#2210000
09!
#2215000
19!
1P!
0N!
1L!
1K!
1H!
1G!
#2220000
09!
#2225000
19!
1S!
0"!
#2230000
09!
#2235000
19!
0S!
1"!
#2240000
09!
#2245000
19!
#2250000
09!
#2255000
19!
#2260000
09!
#2265000
19!
#2270000
09!
#2275000
19!
#2280000
09!
#2285000
19!
#2290000
09!
#2295000
19!
#2300000
09!
#2305000
19!
#2310000
09!
#2315000
19!
#2320000
09!
#2325000
19!
#2330000
09!
#2335000
19!
#2340000
09!
#2345000
19!
1:!
0B!
0A!
0@!
0?!
0>!
0=!
0<!
0;!
#2350000
09!
#2355000
19!
0P!
0Q!
0:!
1N!
#2360000
09!
#2365000
19!
1P!
0[!
#2370000
09!
#2375000
19!
1R!
0P!
#2380000
09!
#2385000
19!
1P!
#2390000
09!
#2395000
19!
0P!
#2400000
09!
#2405000
19!
1P!
0Y!
#2410000
09!
#2415000
19!
0R!
0P!
#2420000
09!
#2425000
19!
1P!
#2430000
09!
#2435000
19!
0P!
#2440000
09!
#2445000
19!
1P!
0W!
#2450000
09!
#2455000
19!
1R!
0P!
#2460000
09!
#2465000
19!
1P!
#2470000
09!
#2475000
19!
0P!
#2480000
09!
#2485000
19!
1P!
0U!
#2490000
09!
#2495000
19!
0R!
0P!
#2500000
09!
#2505000
19!
1P!
0N!
0M!
0I!
#2510000
09!
#2515000
19!
#2520000
09!
#2525000
19!
#2530000
09!
#2535000
19!
#2540000
09!
#2545000
19!
#2550000
09!
#2555000
19!
1:!
1B!
1A!
1@!
1?!
1>!
1=!
1<!
1;!
#2560000
09!
#2565000
19!
1R!
0P!
1Q!
0:!
1N!
#2570000
09!
#2575000
19!
1P!
#2580000
09!
#2585000
19!
0R!
0P!
#2590000
09!
#2595000
19!
1P!
#2600000
09!
#2605000
19!
0P!
#2610000
09!
#2615000
19!
1P!
1a!
#2620000
09!
#2625000
19!
0P!
#2630000
09!
#2635000
19!
1P!
1`!
#2640000
09!
#2645000
19!
1R!
0P!
#2650000
09!
#2655000
19!
1P!
#2660000
09!
#2665000
19!
0R!
0P!
#2670000
09!
#2675000
19!
1P!
#2680000
09!
#2685000
19!
0P!
#2690000
09!
#2695000
19!
1P!
1]!
#2700000
09!
#2705000
19!
0P!
#2710000
09!
#2715000
19!
1P!
0N!
1M!
0L!
0K!
1I!
0H!
0G!
1\!
#2720000
09!
#2725000
19!
#2730000
09!
#2735000
19!
#2740000
09!
#2745000
19!
#2750000
09!
#2755000
19!
#2760000
09!
#2765000
19!
1:!
xB!
xA!
x@!
x?!
x>!
x=!
x<!
x;!
#2770000
09!
#2775000
19!
1R!
0P!
xQ!
0:!
1N!
#2780000
09!
#2785000
19!
1P!
#2790000
09!
#2795000
19!
0P!
#2800000
09!
#2805000
19!
1P!
#2810000
09!
#2815000
19!
0P!
#2820000
09!
#2825000
19!
1P!
#2830000
09!
#2835000
19!
0R!
0P!
#2840000
09!
#2845000
19!
1P!
#2850000
09!
#2855000
19!
1R!
0P!
#2860000
09!
#2865000
19!
1P!
#2870000
09!
#2875000
19!
0P!
#2880000
09!
#2885000
19!
1P!
#2890000
09!
#2895000
19!
0P!
#2900000
09!
#2905000
19!
1P!
#2910000
09!
#2915000
19!
0R!
0P!
#2920000
09!
#2925000
19!
1P!
0N!
1L!
1K!
1H!
1G!
1k!
1h!
1g!
1d!
0s!
0o!
1x!
1t!
#2930000
09!
#2935000
19!
1S!
0"!
#2940000
09!
#2945000
19!
0S!
1"!
#2950000
09!
#2955000
19!
#2960000
09!
#2965000
19!
#2970000
09!
#2975000
19!
#2980000
09!
#2985000
19!
#2990000
09!
#2995000
19!
#3000000
09!
#3005000
19!
#3010000
09!
#3015000
19!
#3020000
09!
#3025000
19!
#3030000
09!
#3035000
19!
#3040000
09!
#3045000
19!
#3050000
09!
#3055000
19!
1:!
0B!
0A!
0@!
0?!
0>!
0=!
0<!
0;!
#3060000
09!
#3065000
19!
1R!
0P!
0Q!
0:!
1N!
#3070000
09!
#3075000
19!
1P!
#3080000
09!
#3085000
19!
0P!
#3090000
09!
#3095000
19!
1P!
#3100000
09!
#3105000
19!
0P!
#3110000
09!
#3115000
19!
1P!
#3120000
09!
#3125000
19!
0P!
#3130000
09!
#3135000
19!
1P!
#3140000
09!
#3145000
19!
0P!
#3150000
09!
#3155000
19!
1P!
#3160000
09!
#3165000
19!
0P!
#3170000
09!
#3175000
19!
1P!
#3180000
09!
#3185000
19!
0P!
#3190000
09!
#3195000
19!
1P!
#3200000
09!
#3205000
19!
0P!
#3210000
09!
#3215000
19!
1P!
0N!
1J!
1F!
#3220000
09!
#3225000
19!
1o
1l
1k
1h
#3230000
09!
#3235000
19!
#3240000
09!
#3245000
19!
#3250000
09!
#3255000
19!
#3260000
09!
#3265000
19!
1:!
1B!
1A!
1@!
1?!
1>!
1=!
1<!
1;!
#3270000
09!
#3275000
19!
0R!
0P!
1Q!
0:!
1N!
#3280000
09!
#3285000
19!
1P!
#3290000
09!
#3295000
19!
0P!
#3300000
09!
#3305000
19!
1P!
#3310000
09!
#3315000
19!
0P!
#3320000
09!
#3325000
19!
1P!
#3330000
09!
#3335000
19!
0P!
#3340000
09!
#3345000
19!
1P!
#3350000
09!
#3355000
19!
0P!
#3360000
09!
#3365000
19!
1P!
#3370000
09!
#3375000
19!
0P!
#3380000
09!
#3385000
19!
1P!
#3390000
09!
#3395000
19!
0P!
#3400000
09!
#3405000
19!
1P!
#3410000
09!
#3415000
19!
0P!
#3420000
09!
#3425000
19!
1P!
0N!
0M!
0L!
0K!
0J!
0I!
0H!
0G!
0F!
#3430000
09!
#3435000
19!
0w
0s
#3440000
09!
#3445000
19!
#3450000
09!
#3455000
19!
#3460000
09!
#3465000
19!
#3470000
09!
#3475000
19!
1:!
xB!
xA!
x@!
x?!
x>!
x=!
x<!
x;!
#3480000
09!
#3485000
19!
1R!
0P!
xQ!
0:!
1N!
#3490000
09!
#3495000
19!
1P!
#3500000
09!
#3505000
19!
0P!
#3510000
09!
#3515000
19!
1P!
#3520000
09!
#3525000
19!
0P!
#3530000
09!
#3535000
19!
1P!
#3540000
09!
#3545000
19!
0P!
#3550000
09!
#3555000
19!
1P!
#3560000
09!
#3565000
19!
0P!
#3570000
09!
#3575000
19!
1P!
#3580000
09!
#3585000
19!
0P!
#3590000
09!
#3595000
19!
1P!
#3600000
09!
#3605000
19!
0P!
#3610000
09!
#3615000
19!
1P!
#3620000
09!
#3625000
19!
0P!
#3630000
09!
#3635000
19!
1P!
0N!
1M!
1L!
1K!
1J!
1I!
1H!
1G!
1F!
#3640000
09!
#3645000
19!
1S!
1|
1x
0"!
#3650000
09!
#3655000
19!
0S!
1"!
#3660000
09!
#3665000
19!
#3670000
09!
#3675000
19!
#3680000
09!
#3685000
19!
#3690000
09!
#3695000
19!
#3700000
09!
#3705000
19!
#3710000
09!
#3715000
19!
#3720000
09!
#3725000
19!
#3730000
09!
#3735000
19!
#3740000
09!
#3745000
19!
#3750000
09!
#3755000
19!
#3760000
09!
#3765000
19!
1:!
0B!
0A!
0@!
0?!
0>!
0=!
0<!
0;!
#3770000
09!
#3775000
19!
0P!
0Q!
0:!
1N!
#3780000
09!
#3785000
19!
1P!
#3790000
09!
#3795000
19!
0P!
#3800000
09!
#3805000
19!
1P!
#3810000
09!
#3815000
19!
0P!
#3820000
09!
#3825000
19!
1P!
#3830000
09!
#3835000
19!
0P!
#3840000
09!
#3845000
19!
1P!
#3850000
09!
#3855000
19!
0P!
#3860000
09!
#3865000
19!
1P!
#3870000
09!
#3875000
19!
0P!
#3880000
09!
#3885000
19!
1P!
#3890000
09!
#3895000
19!
0P!
#3900000
09!
#3905000
19!
1P!
#3910000
09!
#3915000
19!
0P!
#3920000
09!
#3925000
19!
1P!
0N!
#3930000
09!
#3935000
19!
#3940000
09!
#3945000
19!
#3950000
09!
#3955000
19!
#3960000
09!
#3965000
19!
#3970000
09!
#3975000
19!
1:!
1B!
1A!
1@!
1?!
1>!
1=!
1<!
1;!
#3980000
09!
#3985000
19!
0R!
0P!
1Q!
0:!
1N!
#3990000
09!
#3995000
19!
1P!
#4000000
09!
#4005000
19!
0P!
#4010000
09!
#4015000
19!
1P!
#4020000
09!
#4025000
19!
0P!
#4030000
09!
#4035000
19!
1P!
#4040000
09!
#4045000
19!
0P!
#4050000
09!
#4055000
19!
1P!
#4060000
09!
#4065000
19!
0P!
#4070000
09!
#4075000
19!
1P!
#4080000
09!
#4085000
19!
0P!
#4090000
09!
#4095000
19!
1P!
#4100000
09!
#4105000
19!
0P!
#4110000
09!
#4115000
19!
1P!
#4120000
09!
#4125000
19!
0P!
#4130000
09!
#4135000
19!
1P!
0N!
0M!
0L!
0K!
0J!
0I!
0H!
0G!
0F!
#4140000
09!
#4145000
19!
#4150000
09!
#4155000
19!
#4160000
09!
#4165000
19!
#4170000
09!
#4175000
19!
#4180000
09!
#4185000
19!
1:!
xB!
xA!
x@!
x?!
x>!
x=!
x<!
x;!
#4190000
09!
#4195000
19!
1R!
0P!
xQ!
0:!
1N!
#4200000
09!
#4205000
19!
1P!
#4210000
09!
#4215000
19!
0P!
#4220000
09!
#4225000
19!
1P!
#4230000
09!
#4235000
19!
0P!
#4240000
09!
#4245000
19!
1P!
#4250000
09!
#4255000
19!
0P!
#4260000
09!
#4265000
19!
1P!
#4270000
09!
#4275000
19!
0P!
#4280000
09!
#4285000
19!
1P!
#4290000
09!
#4295000
19!
0P!
#4300000
09!
#4305000
19!
1P!
#4310000
09!
#4315000
19!
0P!
#4320000
09!
#4325000
19!
1P!
#4330000
09!
#4335000
19!
0P!
#4340000
09!
#4345000
19!
1P!
0N!
1M!
1L!
1K!
1J!
1I!
1H!
1G!
1F!
#4350000
09!
#4355000
19!
1S!
0"!
#4360000
09!
#4365000
19!
0S!
1"!
#4370000
09!
#4375000
19!
#4380000
09!
#4385000
19!
#4390000
09!
#4395000
19!
#4400000
09!
#4405000
19!
#4410000
09!
#4415000
19!
#4420000
09!
#4425000
19!
#4430000
09!
#4435000
19!
#4440000
09!
#4445000
19!
#4450000
09!
#4455000
19!
#4460000
09!
#4465000
19!
#4470000
09!
#4475000
19!
1:!
0B!
0A!
0@!
0?!
0>!
0=!
0<!
0;!
#4480000
09!
#4485000
19!
0P!
0Q!
0:!
1N!
#4490000
09!
#4495000
19!
1P!
#4500000
09!
#4505000
19!
0P!
#4510000
09!
#4515000
19!
1P!
#4520000
09!
#4525000
19!
0P!
#4530000
09!
#4535000
19!
1P!
#4540000
09!
#4545000
19!
0P!
#4550000
09!
#4555000
19!
1P!
#4560000
09!
#4565000
19!
0P!
#4570000
09!
#4575000
19!
1P!
#4580000
09!
#4585000
19!
0P!
#4590000
09!
#4595000
19!
1P!
#4600000
09!
#4605000
19!
0P!
#4610000
09!
#4615000
19!
1P!
#4620000
09!
#4625000
19!
0P!
#4630000
09!
#4635000
19!
1P!
0N!
#4640000
09!
#4645000
19!
#4650000
09!
#4655000
19!
#4660000
09!
#4665000
19!
#4670000
09!
#4675000
19!
#4680000
09!
#4685000
19!
1:!
1B!
1A!
1@!
1?!
1>!
1=!
1<!
1;!
#4690000
09!
#4695000
19!
0R!
0P!
1Q!
0:!
1N!
#4700000
09!
#4705000
19!
1P!
#4710000
09!
#4715000
19!
0P!
#4720000
09!
#4725000
19!
1P!
#4730000
09!
#4735000
19!
0P!
#4740000
09!
#4745000
19!
1P!
#4750000
09!
#4755000
19!
0P!
#4760000
09!
#4765000
19!
1P!
#4770000
09!
#4775000
19!
0P!
#4780000
09!
#4785000
19!
1P!
#4790000
09!
#4795000
19!
0P!
#4800000
09!
#4805000
19!
1P!
#4810000
09!
#4815000
19!
0P!
#4820000
09!
#4825000
19!
1P!
#4830000
09!
#4835000
19!
0P!
#4840000
09!
#4845000
19!
1P!
0N!
0M!
0L!
0K!
0J!
0I!
0H!
0G!
0F!
#4850000
09!
#4855000
19!
#4860000
09!
#4865000
19!
#4870000
09!
#4875000
19!
#4880000
09!
#4885000
19!
#4890000
09!
#4895000
19!
1:!
xB!
xA!
x@!
x?!
x>!
x=!
x<!
x;!
#4900000
09!
#4905000
19!
1R!
0P!
xQ!
0:!
1N!
#4910000
09!
#4915000
19!
1P!
#4920000
09!
#4925000
19!
0P!
#4930000
09!
#4935000
19!
1P!
#4940000
09!
#4945000
19!
0P!
#4950000
09!
#4955000
19!
1P!
#4960000
09!
#4965000
19!
0P!
#4970000
09!
#4975000
19!
1P!
