UART/TxUnit/output.vcd
$date
   Tue Dec 17 16:17:49 2024
$end
$version
  P.20131013
$end
$timescale
  1ps
$end
$scope module testtxunit $end
$var wire 1 W clk $end
$var wire 1 X reset $end
$var wire 1 Y enabletx $end
$var wire 1 V enablerx $end
$var wire 1 4 ld $end
$var wire 1 ? data [7] $end
$var wire 1 > data [6] $end
$var wire 1 = data [5] $end
$var wire 1 < data [4] $end
$var wire 1 ; data [3] $end
$var wire 1 : data [2] $end
$var wire 1 9 data [1] $end
$var wire 1 8 data [0] $end
$var wire 1 5 txd $end
$var wire 1 6 rege $end
$var wire 1 7 bufe $end
$scope module uut0 $end
$var wire 1 W clk $end
$var wire 1 X reset $end
$var wire 1 Y enable $end
$var wire 1 4 ld $end
$var wire 1 5 txd $end
$var wire 1 6 rege $end
$var wire 1 7 bufe $end
$var wire 1 ? data [7] $end
$var wire 1 > data [6] $end
$var wire 1 = data [5] $end
$var wire 1 < data [4] $end
$var wire 1 ; data [3] $end
$var wire 1 : data [2] $end
$var wire 1 9 data [1] $end
$var wire 1 8 data [0] $end
$var wire 1 A regenable $end
$var wire 1 B bufenable $end
$var wire 1 J regt [7] $end
$var wire 1 I regt [6] $end
$var wire 1 H regt [5] $end
$var wire 1 G regt [4] $end
$var wire 1 F regt [3] $end
$var wire 1 E regt [2] $end
$var wire 1 D regt [1] $end
$var wire 1 C regt [0] $end
$var wire 1 R buft [7] $end
$var wire 1 Q buft [6] $end
$var wire 1 P buft [5] $end
$var wire 1 O buft [4] $end
$var wire 1 N buft [3] $end
$var wire 1 M buft [2] $end
$var wire 1 L buft [1] $end
$var wire 1 K buft [0] $end
$upscope $end
$scope module clkUnit1 $end
$var wire 1 W clk $end
$var wire 1 X reset $end
$var wire 1 Y enabletx $end
$var wire 1 V enablerx $end
$scope module Inst_diviseurClk $end
$var wire 1 W clk $end
$var wire 1 X reset $end
$var wire 1 Y nclk $end
$var wire 1 Z top $end
$upscope $end
$upscope $end
$upscope $end
$enddefinitions $end
#0
$dumpvars
0X
0W
0Y
0V
04
0?
0>
0=
0<
0;
0:
09
08
15
16
17
1A
1B
xJ
xI
xH
xG
xF
xE
xD
xC
xR
xQ
xP
xO
xN
xM
xL
xK
0Z
$end
#5000
1W
#10000
0W
#15000
1W
#20000
0W
#25000
1W
#30000
0W
#35000
1W
#40000
0W
#45000
1W
#50000
0W
#55000
1W
#60000
0W
#65000
1W
#70000
0W
#75000
1W
#80000
0W
#85000
1W
#90000
0W
#95000
1W
#100000
1X
0W
#105000
1W
1V
#110000
0W
0V
#115000
1W
1V
#120000
0W
0V
#125000
1W
1V
#130000
0W
0V
#135000
1W
1V
#140000
0W
0V
#145000
1W
1V
#150000
0W
0V
#155000
1W
1V
#160000
0W
0V
#165000
1W
1V
#170000
0W
0V
#175000
1W
1V
#180000
0W
0V
#185000
1W
1V
#190000
0W
0V
#195000
1W
1V
#200000
0W
0V
#205000
1W
1V
#210000
0W
0V
#215000
1W
1V
#220000
0W
0V
#225000
1W
1V
#230000
0W
0V
#235000
1W
1V
#240000
0W
0V
#245000
1W
1V
#250000
0W
0V
#255000
1W
1Y
1V
#260000
0W
0V
#265000
1W
0Y
1V
#270000
0W
0V
#275000
1W
1V
#280000
0W
0V
#285000
1W
1V
#290000
0W
0V
#295000
1W
1V
#300000
0W
0V
#305000
1W
1V
#310000
0W
0V
14
1>
1<
1:
18
#315000
1W
1V
07
0B
0R
1Q
0P
1O
0N
1M
0L
1K
#320000
0W
0V
#325000
1W
1V
04
06
17
0A
1B
0J
1I
0H
1G
0F
1E
0D
1C
#330000
0W
0V
#335000
1W
1V
#340000
0W
0V
#345000
1W
1V
#350000
0W
0V
#355000
1W
1V
#360000
0W
0V
#365000
1W
1V
#370000
0W
0V
#375000
1W
1V
#380000
0W
0V
#385000
1W
1V
#390000
0W
0V
#395000
1W
1V
#400000
0W
0V
#405000
1W
1V
#410000
0W
0V
#415000
1W
1Y
1V
#420000
0W
0V
#425000
1W
0Y
1V
05
#430000
0W
0V
#435000
1W
1V
#440000
0W
0V
#445000
1W
1V
#450000
0W
0V
#455000
1W
1V
#460000
0W
0V
#465000
1W
1V
#470000
0W
0V
#475000
1W
1V
#480000
0W
0V
#485000
1W
1V
#490000
0W
0V
#495000
1W
1V
#500000
0W
0V
#505000
1W
1V
#510000
0W
0V
#515000
1W
1V
#520000
0W
0V
#525000
1W
1V
#530000
0W
0V
#535000
1W
1V
#540000
0W
0V
#545000
1W
1V
#550000
0W
0V
#555000
1W
1V
#560000
0W
0V
#565000
1W
1V
#570000
0W
0V
#575000
1W
1Y
1V
#580000
0W
0V
#585000
1W
0Y
1V
#590000
0W
0V
#595000
1W
1V
#600000
0W
0V
#605000
1W
1V
#610000
0W
0V
#615000
1W
1V
#620000
0W
0V
#625000
1W
1V
#630000
0W
0V
#635000
1W
1V
#640000
0W
0V
#645000
1W
1V
#650000
0W
0V
#655000
1W
1V
#660000
0W
0V
#665000
1W
1V
#670000
0W
0V
#675000
1W
1V
#680000
0W
0V
#685000
1W
1V
#690000
0W
0V
#695000
1W
1V
#700000
0W
0V
#705000
1W
1V
#710000
0W
0V
#715000
1W
1V
#720000
0W
0V
#725000
1W
1V
#730000
0W
0V
#735000
1W
1Y
1V
#740000
0W
0V
#745000
1W
0Y
1V
15
#750000
0W
0V
#755000
1W
1V
#760000
0W
0V
#765000
1W
1V
#770000
0W
0V
#775000
1W
1V
#780000
0W
0V
#785000
1W
1V
#790000
0W
0V
#795000
1W
1V
#800000
0W
0V
#805000
1W
1V
#810000
0W
0V
#815000
1W
1V
#820000
0W
0V
#825000
1W
1V
#830000
0W
0V
#835000
1W
1V
#840000
0W
0V
#845000
1W
1V
#850000
0W
0V
#855000
1W
1V
#860000
0W
0V
#865000
1W
1V
#870000
0W
0V
#875000
1W
1V
#880000
0W
0V
#885000
1W
1V
#890000
0W
0V
#895000
1W
1Y
1V
#900000
0W
0V
#905000
1W
0Y
1V
05
#910000
0W
0V
#915000
1W
1V
#920000
0W
0V
#925000
1W
1V
#930000
0W
0V
#935000
1W
1V
#940000
0W
0V
#945000
1W
1V
#950000
0W
0V
#955000
1W
1V
#960000
0W
0V
#965000
1W
1V
#970000
0W
0V
#975000
1W
1V
#980000
0W
0V
#985000
1W
1V
#990000
0W
0V
#995000
1W
1V
#1000000
0W
0V
#1005000
1W
1V
#1010000
0W
0V
#1015000
1W
1V
#1020000
0W
0V
#1025000
1W
1V
#1030000
0W
0V
#1035000
1W
1V
#1040000
0W
0V
#1045000
1W
1V
#1050000
0W
0V
#1055000
1W
1Y
1V
#1060000
0W
0V
#1065000
1W
0Y
1V
15
#1070000
0W
0V
#1075000
1W
1V
#1080000
0W
0V
#1085000
1W
1V
#1090000
0W
0V
#1095000
1W
1V
#1100000
0W
0V
#1105000
1W
1V
#1110000
0W
0V
#1115000
1W
1V
#1120000
0W
0V
#1125000
1W
1V
#1130000
0W
0V
#1135000
1W
1V
#1140000
0W
0V
#1145000
1W
1V
#1150000
0W
0V
#1155000
1W
1V
#1160000
0W
0V
#1165000
1W
1V
#1170000
0W
0V
#1175000
1W
1V
#1180000
0W
0V
#1185000
1W
1V
#1190000
0W
0V
#1195000
1W
1V
#1200000
0W
0V
#1205000
1W
1V
#1210000
0W
0V
#1215000
1W
1Y
1V
#1220000
0W
0V
#1225000
1W
0Y
1V
05
#1230000
0W
0V
#1235000
1W
1V
#1240000
0W
0V
#1245000
1W
1V
#1250000
0W
0V
#1255000
1W
1V
#1260000
0W
0V
#1265000
1W
1V
#1270000
0W
0V
#1275000
1W
1V
#1280000
0W
0V
#1285000
1W
1V
#1290000
0W
0V
#1295000
1W
1V
#1300000
0W
0V
#1305000
1W
1V
#1310000
0W
0V
#1315000
1W
1V
#1320000
0W
0V
#1325000
1W
1V
#1330000
0W
0V
#1335000
1W
1V
#1340000
0W
0V
#1345000
1W
1V
#1350000
0W
0V
#1355000
1W
1V
#1360000
0W
0V
#1365000
1W
1V
#1370000
0W
0V
#1375000
1W
1Y
1V
#1380000
0W
0V
#1385000
1W
0Y
1V
15
#1390000
0W
0V
#1395000
1W
1V
#1400000
0W
0V
#1405000
1W
1V
#1410000
0W
0V
#1415000
1W
1V
#1420000
0W
0V
#1425000
1W
1V
#1430000
0W
0V
#1435000
1W
1V
#1440000
0W
0V
#1445000
1W
1V
#1450000
0W
0V
#1455000
1W
1V
#1460000
0W
0V
#1465000
1W
1V
#1470000
0W
0V
#1475000
1W
1V
#1480000
0W
0V
#1485000
1W
1V
#1490000
0W
0V
#1495000
1W
1V
#1500000
0W
0V
#1505000
1W
1V
#1510000
0W
0V
#1515000
1W
1V
#1520000
0W
0V
#1525000
1W
1V
#1530000
0W
0V
#1535000
1W
1Y
1V
#1540000
0W
0V
#1545000
1W
0Y
1V
05
#1550000
0W
0V
#1555000
1W
1V
#1560000
0W
0V
#1565000
1W
1V
#1570000
0W
0V
#1575000
1W
1V
#1580000
0W
0V
#1585000
1W
1V
#1590000
0W
0V
#1595000
1W
1V
#1600000
0W
0V
#1605000
1W
1V
#1610000
0W
0V
#1615000
1W
1V
#1620000
0W
0V
#1625000
1W
1V
#1630000
0W
0V
#1635000
1W
1V
#1640000
0W
0V
#1645000
1W
1V
#1650000
0W
0V
#1655000
1W
1V
#1660000
0W
0V
#1665000
1W
1V
#1670000
0W
0V
#1675000
1W
1V
#1680000
0W
0V
#1685000
1W
1V
#1690000
0W
0V
#1695000
1W
1Y
1V
#1700000
0W
0V
#1705000
1W
0Y
1V
15
#1710000
0W
0V
#1715000
1W
1V
#1720000
0W
0V
#1725000
1W
1V
#1730000
0W
0V
#1735000
1W
1V
#1740000
0W
0V
#1745000
1W
1V
#1750000
0W
0V
#1755000
1W
1V
#1760000
0W
0V
#1765000
1W
1V
#1770000
0W
0V
#1775000
1W
1V
#1780000
0W
0V
#1785000
1W
1V
#1790000
0W
0V
#1795000
1W
1V
#1800000
0W
0V
#1805000
1W
1V
#1810000
0W
0V
#1815000
1W
1V
#1820000
0W
0V
#1825000
1W
1V
#1830000
0W
0V
#1835000
1W
1V
#1840000
0W
0V
#1845000
1W
1V
#1850000
0W
0V
#1855000
1W
1Y
1V
#1860000
0W
0V
#1865000
1W
0Y
1V
05
16
1A
#1870000
0W
0V
#1875000
1W
1V
14
1?
1=
0:
08
07
0B
1R
1P
0M
0K
#1880000
0W
0V
#1885000
1W
1V
#1890000
0W
0V
#1895000
1W
1V
04
#1900000
0W
0V
#1905000
1W
1V
#1910000
0W
0V
#1915000
1W
1V
#1920000
0W
0V
#1925000
1W
1V
#1930000
0W
0V
#1935000
1W
1V
#1940000
0W
0V
#1945000
1W
1V
#1950000
0W
0V
#1955000
1W
1V
#1960000
0W
0V
#1965000
1W
1V
#1970000
0W
0V
#1975000
1W
1V
#1980000
0W
0V
#1985000
1W
1V
#1990000
0W
0V
#1995000
1W
1V
#2000000
0W
0V
#2005000
1W
1V
#2010000
0W
0V
#2015000
1W
1Y
1V
#2020000
0W
0V
#2025000
1W
0Y
1V
15
#2030000
0W
0V
#2035000
1W
1V
06
17
0A
1B
1J
1H
0E
0C
#2040000
0W
0V
#2045000
1W
1V
14
0?
0>
0=
0<
1;
1:
19
18
07
0B
0R
0Q
0P
0O
1N
1M
1L
1K
#2050000
0W
0V
#2055000
1W
1V
04
#2060000
0W
0V
#2065000
1W
1V
#2070000
0W
0V
#2075000
1W
1V
#2080000
0W
0V
#2085000
1W
1V
#2090000
0W
0V
#2095000
1W
1V
#2100000
0W
0V
#2105000
1W
1V
#2110000
0W
0V
#2115000
1W
1V
#2120000
0W
0V
#2125000
1W
1V
#2130000
0W
0V
#2135000
1W
1V
#2140000
0W
0V
#2145000
1W
1V
#2150000
0W
0V
#2155000
1W
1V
#2160000
0W
0V
#2165000
1W
1V
#2170000
0W
0V
#2175000
1W
1Y
1V
#2180000
0W
0V
#2185000
1W
0Y
1V
05
#2190000
0W
0V
#2195000
1W
1V
#2200000
0W
0V
#2205000
1W
1V
#2210000
0W
0V
#2215000
1W
1V
#2220000
0W
0V
#2225000
1W
1V
#2230000
0W
0V
#2235000
1W
1V
#2240000
0W
0V
#2245000
1W
1V
#2250000
0W
0V
#2255000
1W
1V
#2260000
0W
0V
#2265000
1W
1V
#2270000
0W
0V
#2275000
1W
1V
#2280000
0W
0V
#2285000
1W
1V
#2290000
0W
0V
#2295000
1W
1V
#2300000
0W
0V
#2305000
1W
1V
#2310000
0W
0V
#2315000
1W
1V
#2320000
0W
0V
#2325000
1W
1V
#2330000
0W
0V
#2335000
1W
1Y
1V
#2340000
0W
0V
#2345000
1W
0Y
1V
15
#2350000
0W
0V
#2355000
1W
1V
#2360000
0W
0V
#2365000
1W
1V
#2370000
0W
0V
#2375000
1W
1V
#2380000
0W
0V
#2385000
1W
1V
#2390000
0W
0V
#2395000
1W
1V
#2400000
0W
0V
#2405000
1W
1V
#2410000
0W
0V
#2415000
1W
1V
#2420000
0W
0V
#2425000
1W
1V
#2430000
0W
0V
#2435000
1W
1V
#2440000
0W
0V
#2445000
1W
1V
#2450000
0W
0V
#2455000
1W
1V
#2460000
0W
0V
#2465000
1W
1V
#2470000
0W
0V
#2475000
1W
1V
#2480000
0W
0V
#2485000
1W
1V
#2490000
0W
0V
#2495000
1W
1Y
1V
#2500000
0W
0V
#2505000
1W
0Y
1V
#2510000
0W
0V
#2515000
1W
1V
#2520000
0W
0V
#2525000
1W
1V
#2530000
0W
0V
#2535000
1W
1V
#2540000
0W
0V
#2545000
1W
1V
#2550000
0W
0V
#2555000
1W
1V
#2560000
0W
0V
#2565000
1W
1V
#2570000
0W
0V
#2575000
1W
1V
#2580000
0W
0V
#2585000
1W
1V
#2590000
0W
0V
#2595000
1W
1V
#2600000
0W
0V
#2605000
1W
1V
#2610000
0W
0V
#2615000
1W
1V
#2620000
0W
0V
#2625000
1W
1V
#2630000
0W
0V
#2635000
1W
1V
#2640000
0W
0V
#2645000
1W
1V
#2650000
0W
0V
#2655000
1W
1Y
1V
#2660000
0W
0V
#2665000
1W
0Y
1V
#2670000
0W
0V
#2675000
1W
1V
#2680000
0W
0V
#2685000
1W
1V
#2690000
0W
0V
#2695000
1W
1V
#2700000
0W
0V
#2705000
1W
1V
#2710000
0W
0V
#2715000
1W
1V
#2720000
0W
0V
#2725000
1W
1V
#2730000
0W
0V
#2735000
1W
1V
#2740000
0W
0V
#2745000
1W
1V
#2750000
0W
0V
#2755000
1W
1V
#2760000
0W
0V
#2765000
1W
1V
#2770000
0W
0V
#2775000
1W
1V
#2780000
0W
0V
#2785000
1W
1V
#2790000
0W
0V
#2795000
1W
1V
#2800000
0W
0V
#2805000
1W
1V
#2810000
0W
0V
#2815000
1W
1Y
1V
#2820000
0W
0V
#2825000
1W
0Y
1V
#2830000
0W
0V
#2835000
1W
1V
#2840000
0W
0V
#2845000
1W
1V
#2850000
0W
0V
#2855000
1W
1V
#2860000
0W
0V
#2865000
1W
1V
#2870000
0W
0V
#2875000
1W
1V
#2880000
0W
0V
#2885000
1W
1V
#2890000
0W
0V
#2895000
1W
1V
#2900000
0W
0V
#2905000
1W
1V
#2910000
0W
0V
#2915000
1W
1V
#2920000
0W
0V
#2925000
1W
1V
#2930000
0W
0V
#2935000
1W
1V
#2940000
0W
0V
#2945000
1W
1V
#2950000
0W
0V
#2955000
1W
1V
#2960000
0W
0V
#2965000
1W
1V
#2970000
0W
0V
#2975000
1W
1Y
1V
#2980000
0W
0V
#2985000
1W
0Y
1V
05
#2990000
0W
0V
#2995000
1W
1V
#3000000
0W
0V
#3005000
1W
1V
#3010000
0W
0V
#3015000
1W
1V
#3020000
0W
0V
#3025000
1W
1V
#3030000
0W
0V
#3035000
1W
1V
#3040000
0W
0V
#3045000
1W
1V
#3050000
0W
0V
#3055000
1W
1V
#3060000
0W
0V
#3065000
1W
1V
#3070000
0W
0V
#3075000
1W
1V
#3080000
0W
0V
#3085000
1W
1V
#3090000
0W
0V
#3095000
1W
1V
#3100000
0W
0V
#3105000
1W
1V
#3110000
0W
0V
#3115000
1W
1V
#3120000
0W
0V
#3125000
1W
1V
#3130000
0W
0V
#3135000
1W
1Y
1V
#3140000
0W
0V
#3145000
1W
0Y
1V
#3150000
0W
0V
#3155000
1W
1V
#3160000
0W
0V
#3165000
1W
1V
#3170000
0W
0V
#3175000
1W
1V
#3180000
0W
0V
#3185000
1W
1V
#3190000
0W
0V
#3195000
1W
1V
#3200000
0W
0V
#3205000
1W
1V
#3210000
0W
0V
#3215000
1W
1V
#3220000
0W
0V
#3225000
1W
1V
#3230000
0W
0V
#3235000
1W
1V
#3240000
0W
0V
#3245000
1W
1V
#3250000
0W
0V
#3255000
1W
1V
#3260000
0W
0V
#3265000
1W
1V
#3270000
0W
0V
#3275000
1W
1V
#3280000
0W
0V
#3285000
1W
1V
#3290000
0W
0V
#3295000
1W
1Y
1V
#3300000
0W
0V
#3305000
1W
0Y
1V
#3310000
0W
0V
#3315000
1W
1V
#3320000
0W
0V
#3325000
1W
1V
#3330000
0W
0V
#3335000
1W
1V
#3340000
0W
0V
#3345000
1W
1V
#3350000
0W
0V
#3355000
1W
1V
#3360000
0W
0V
#3365000
1W
1V
#3370000
0W
0V
#3375000
1W
1V
#3380000
0W
0V
#3385000
1W
1V
#3390000
0W
0V
#3395000
1W
1V
#3400000
0W
0V
#3405000
1W
1V
#3410000
0W
0V
#3415000
1W
1V
#3420000
0W
0V
#3425000
1W
1V
#3430000
0W
0V
#3435000
1W
1V
#3440000
0W
0V
#3445000
1W
1V
#3450000
0W
0V
#3455000
1W
1Y
1V
#3460000
0W
0V
#3465000
1W
0Y
1V
#3470000
0W
0V
#3475000
1W
1V
#3480000
0W
0V
#3485000
1W
1V
#3490000
0W
0V
#3495000
1W
1V
#3500000
0W
0V
#3505000
1W
1V
#3510000
0W
0V
#3515000
1W
1V
#3520000
0W
0V
#3525000
1W
1V
#3530000
0W
0V
#3535000
1W
1V
#3540000
0W
0V
#3545000
1W
1V
#3550000
0W
0V
#3555000
1W
1V
#3560000
0W
0V
#3565000
1W
1V
#3570000
0W
0V
#3575000
1W
1V
#3580000
0W
0V
#3585000
1W
1V
#3590000
0W
0V
#3595000
1W
1V
#3600000
0W
0V
#3605000
1W
1V
#3610000
0W
0V
#3615000
1W
1Y
1V
#3620000
0W
0V
#3625000
1W
0Y
1V
16
1A
#3630000
0W
0V
#3635000
1W
1V
#3640000
0W
0V
#3645000
1W
1V
#3650000
0W
0V
#3655000
1W
1V
#3660000
0W
0V
#3665000
1W
1V
#3670000
0W
0V
#3675000
1W
1V
#3680000
0W
0V
#3685000
1W
1V
#3690000
0W
0V
#3695000
1W
1V
#3700000
0W
0V
#3705000
1W
1V
#3710000
0W
0V
#3715000
1W
1V
#3720000
0W
0V
#3725000
1W
1V
#3730000
0W
0V
#3735000
1W
1V
#3740000
0W
0V
#3745000
1W
1V
#3750000
0W
0V
#3755000
1W
1V
#3760000
0W
0V
#3765000
1W
1V
#3770000
0W
0V
#3775000
1W
1Y
1V
#3780000
0W
0V
#3785000
1W
0Y
1V
15
#3790000
0W
0V
#3795000
1W
1V
06
17
0A
1B
0J
0I
0H
0G
1F
1E
1D
1C
#3800000
0W
0V
#3805000
1W
1V
#3810000
0W
0V
#3815000
1W
1V
#3820000
0W
0V
#3825000
1W
1V
#3830000
0W
0V
#3835000
1W
1V
#3840000
0W
0V
#3845000
1W
1V
#3850000
0W
0V
#3855000
1W
1V
#3860000
0W
0V
#3865000
1W
1V
#3870000
0W
0V
#3875000
1W
1V
#3880000
0W
0V
#3885000
1W
1V
#3890000
0W
0V
#3895000
1W
1V
#3900000
0W
0V
#3905000
1W
1V
#3910000
0W
0V
#3915000
1W
1V
#3920000
0W
0V
#3925000
1W
1V
#3930000
0W
0V
#3935000
1W
1Y
1V
#3940000
0W
0V
#3945000
1W
0Y
1V
05
#3950000
0W
0V
#3955000
1W
1V
#3960000
0W
0V
#3965000
1W
1V
#3970000
0W
0V
#3975000
1W
1V
#3980000
0W
0V
#3985000
1W
1V
14
1?
1>
1=
1<
07
0B
1R
1Q
1P
1O
#3990000
0W
0V
#3995000
1W
1V
04
#4000000
0W
0V
#4005000
1W
1V
#4010000
0W
0V
#4015000
1W
1V
#4020000
0W
0V
#4025000
1W
1V
#4030000
0W
0V
#4035000
1W
1V
#4040000
0W
0V
#4045000
1W
1V
#4050000
0W
0V
#4055000
1W
1V
#4060000
0W
0V
#4065000
1W
1V
#4070000
0W
0V
#4075000
1W
1V
#4080000
0W
0V
#4085000
1W
1V
#4090000
0W
0V
#4095000
1W
1Y
1V
#4100000
0W
0V
#4105000
1W
0Y
1V
#4110000
0W
0V
#4115000
1W
1V
#4120000
0W
0V
#4125000
1W
1V
#4130000
0W
0V
#4135000
1W
1V
#4140000
0W
0V
#4145000
1W
1V
#4150000
0W
0V
#4155000
1W
1V
#4160000
0W
0V
#4165000
1W
1V
#4170000
0W
0V
#4175000
1W
1V
#4180000
0W
0V
#4185000
1W
1V
#4190000
0W
0V
#4195000
1W
1V
#4200000
0W
0V
#4205000
1W
1V
#4210000
0W
0V
#4215000
1W
1V
#4220000
0W
0V
#4225000
1W
1V
#4230000
0W
0V
#4235000
1W
1V
#4240000
0W
0V
#4245000
1W
1V
#4250000
0W
0V
#4255000
1W
1Y
1V
#4260000
0W
0V
#4265000
1W
0Y
1V
#4270000
0W
0V
#4275000
1W
1V
#4280000
0W
0V
#4285000
1W
1V
#4290000
0W
0V
#4295000
1W
1V
#4300000
0W
0V
#4305000
1W
1V
#4310000
0W
0V
#4315000
1W
1V
#4320000
0W
0V
#4325000
1W
1V
#4330000
0W
0V
#4335000
1W
1V
#4340000
0W
0V
#4345000
1W
1V
#4350000
0W
0V
#4355000
1W
1V
#4360000
0W
0V
#4365000
1W
1V
#4370000
0W
0V
#4375000
1W
1V
#4380000
0W
0V
#4385000
1W
1V
#4390000
0W
0V
#4395000
1W
1V
#4400000
0W
0V
#4405000
1W
1V
#4410000
0W
0V
#4415000
1W
1Y
1V
#4420000
0W
0V
#4425000
1W
0Y
1V
#4430000
0W
0V
#4435000
1W
1V
#4440000
0W
0V
#4445000
1W
1V
#4450000
0W
0V
#4455000
1W
1V
#4460000
0W
0V
#4465000
1W
1V
#4470000
0W
0V
#4475000
1W
1V
#4480000
0W
0V
#4485000
1W
1V
#4490000
0W
0V
#4495000
1W
1V
#4500000
0W
0V
#4505000
1W
1V
#4510000
0W
0V
#4515000
1W
1V
#4520000
0W
0V
#4525000
1W
1V
#4530000
0W
0V
#4535000
1W
1V
#4540000
0W
0V
#4545000
1W
1V
#4550000
0W
0V
#4555000
1W
1V
#4560000
0W
0V
#4565000
1W
1V
#4570000
0W
0V
#4575000
1W
1Y
1V
#4580000
0W
0V
#4585000
1W
0Y
1V
#4590000
0W
0V
#4595000
1W
1V
#4600000
0W
0V
#4605000
1W
1V
#4610000
0W
0V
#4615000
1W
1V
#4620000
0W
0V
#4625000
1W
1V
#4630000
0W
0V
#4635000
1W
1V
#4640000
0W
0V
#4645000
1W
1V
#4650000
0W
0V
#4655000
1W
1V
#4660000
0W
0V
#4665000
1W
1V
#4670000
0W
0V
#4675000
1W
1V
#4680000
0W
0V
#4685000
1W
1V
#4690000
0W
0V
#4695000
1W
1V
#4700000
0W
0V
#4705000
1W
1V
#4710000
0W
0V
#4715000
1W
1V
#4720000
0W
0V
#4725000
1W
1V
#4730000
0W
0V
#4735000
1W
1Y
1V
#4740000
0W
0V
#4745000
1W
0Y
1V
15
#4750000
0W
0V
#4755000
1W
1V
#4760000
0W
0V
#4765000
1W
1V
#4770000
0W
0V
#4775000
1W
1V
#4780000
0W
0V
#4785000
1W
1V
#4790000
0W
0V
#4795000
1W
1V
#4800000
0W
0V
#4805000
1W
1V
#4810000
0W
0V
#4815000
1W
1V
#4820000
0W
0V
#4825000
1W
1V
#4830000
0W
0V
#4835000
1W
1V
#4840000
0W
0V
#4845000
1W
1V
#4850000
0W
0V
#4855000
1W
1V
#4860000
0W
0V
#4865000
1W
1V
#4870000
0W
0V
#4875000
1W
1V
#4880000
0W
0V
#4885000
1W
1V
#4890000
0W
0V
#4895000
1W
1Y
1V
#4900000
0W
0V
#4905000
1W
0Y
1V
#4910000
0W
0V
#4915000
1W
1V
#4920000
0W
0V
#4925000
1W
1V
#4930000
0W
0V
#4935000
1W
1V
#4940000
0W
0V
#4945000
1W
1V
#4950000
0W
0V
#4955000
1W
1V
#4960000
0W
0V
#4965000
1W
1V
#4970000
0W
0V
#4975000
1W
1V
#4980000
0W
0V
#4985000
1W
1V
#4990000
0W
0V
#4995000
1W
1V
#5000000
0W
0V
#5005000
1W
1V
#5010000
0W
0V
#5015000
1W
1V
#5020000
0W
0V
#5025000
1W
1V
#5030000
0W
0V
#5035000
1W
1V
#5040000
0W
0V
#5045000
1W
1V
#5050000
0W
0V
#5055000
1W
1Y
1V
#5060000
0W
0V
#5065000
1W
0Y
1V
#5070000
0W
0V
#5075000
1W
1V
#5080000
0W
0V
#5085000
1W
1V
#5090000
0W
0V
#5095000
1W
1V
#5100000
0W
0V
#5105000
1W
1V
#5110000
0W
0V
#5115000
1W
1V
#5120000
0W
0V
#5125000
1W
1V
#5130000
0W
0V
#5135000
1W
1V
#5140000
0W
0V
#5145000
1W
1V
#5150000
0W
0V
#5155000
1W
1V
#5160000
0W
0V
#5165000
1W
1V
#5170000
0W
0V
#5175000
1W
1V
#5180000
0W
0V
#5185000
1W
1V
#5190000
0W
0V
#5195000
1W
1V
#5200000
0W
0V
#5205000
1W
1V
#5210000
0W
0V
#5215000
1W
1Y
1V
#5220000
0W
0V
#5225000
1W
0Y
1V
#5230000
0W
0V
#5235000
1W
1V
#5240000
0W
0V
#5245000
1W
1V
#5250000
0W
0V
#5255000
1W
1V
#5260000
0W
0V
#5265000
1W
1V
#5270000
0W
0V
#5275000
1W
1V
#5280000
0W
0V
#5285000
1W
1V
#5290000
0W
0V
#5295000
1W
1V
#5300000
0W
0V
#5305000
1W
1V
#5310000
0W
0V
#5315000
1W
1V
#5320000
0W
0V
#5325000
1W
1V
#5330000
0W
0V
#5335000
1W
1V
#5340000
0W
0V
#5345000
1W
1V
#5350000
0W
0V
#5355000
1W
1V
#5360000
0W
0V
#5365000
1W
1V
#5370000
0W
0V
#5375000
1W
1Y
1V
#5380000
0W
0V
#5385000
1W
0Y
1V
05
16
1A
#5390000
0W
0V
#5395000
1W
1V
#5400000
0W
0V
#5405000
1W
1V
#5410000
0W
0V
#5415000
1W
1V
#5420000
0W
0V
#5425000
1W
1V
#5430000
0W
0V
#5435000
1W
1V
#5440000
0W
0V
#5445000
1W
1V
#5450000
0W
0V
#5455000
1W
1V
#5460000
0W
0V
#5465000
1W
1V
#5470000
0W
0V
#5475000
1W
1V
#5480000
0W
0V
#5485000
1W
1V
#5490000
0W
0V
#5495000
1W
1V
#5500000
0W
0V
#5505000
1W
1V
#5510000
0W
0V
#5515000
1W
1V
#5520000
0W
0V
#5525000
1W
1V
#5530000
0W
0V
#5535000
1W
1Y
1V
#5540000
0W
0V
#5545000
1W
0Y
1V
15
#5550000
0W
0V
#5555000
1W
1V
06
17
0A
1B
1J
1I
1H
1G
#5560000
0W
0V
#5565000
1W
1V
#5570000
0W
0V
#5575000
1W
1V
#5580000
0W
0V
#5585000
1W
1V
#5590000
0W
0V
#5595000
1W
1V
#5600000
0W
0V
#5605000
1W
1V
#5610000
0W
0V
#5615000
1W
1V
#5620000
0W
0V
#5625000
1W
1V
#5630000
0W
0V
#5635000
1W
1V
#5640000
0W
0V
#5645000
1W
1V
#5650000
0W
0V
#5655000
1W
1V
#5660000
0W
0V
#5665000
1W
1V
#5670000
0W
0V
#5675000
1W
1V
#5680000
0W
0V
#5685000
1W
1V
#5690000
0W
0V
#5695000
1W
1Y
1V
#5700000
0W
0V
#5705000
1W
0Y
1V
05
#5710000
0W
0V
#5715000
1W
1V
#5720000
0W
0V
#5725000
1W
1V
#5730000
0W
0V
#5735000
1W
1V
#5740000
0W
0V
#5745000
1W
1V
#5750000
0W
0V
#5755000
1W
1V
#5760000
0W
0V
#5765000
1W
1V
#5770000
0W
0V
#5775000
1W
1V
#5780000
0W
0V
#5785000
1W
1V
#5790000
0W
0V
#5795000
1W
1V
#5800000
0W
0V
#5805000
1W
1V
#5810000
0W
0V
#5815000
1W
1V
#5820000
0W
0V
#5825000
1W
1V
#5830000
0W
0V
#5835000
1W
1V
#5840000
0W
0V
#5845000
1W
1V
#5850000
0W
0V
#5855000
1W
1Y
1V
#5860000
0W
0V
#5865000
1W
0Y
1V
15
#5870000
0W
0V
#5875000
1W
1V
#5880000
0W
0V
#5885000
1W
1V
#5890000
0W
0V
#5895000
1W
1V
#5900000
0W
0V
#5905000
1W
1V
#5910000
0W
0V
#5915000
1W
1V
#5920000
0W
0V
#5925000
1W
1V
#5930000
0W
0V
#5935000
1W
1V
#5940000
0W
0V
#5945000
1W
1V
#5950000
0W
0V
#5955000
1W
1V
#5960000
0W
0V
#5965000
1W
1V
#5970000
0W
0V
#5975000
1W
1V
#5980000
0W
0V
#5985000
1W
1V
#5990000
0W
0V
#5995000
1W
1V
#6000000
0W
0V
#6005000
1W
1V
#6010000
0W
0V
#6015000
1W
1Y
1V
#6020000
0W
0V
#6025000
1W
0Y
1V
#6030000
0W
0V
#6035000
1W
1V
#6040000
0W
0V
#6045000
1W
1V
#6050000
0W
0V
#6055000
1W
1V
#6060000
0W
0V
#6065000
1W
1V
#6070000
0W
0V
#6075000
1W
1V
#6080000
0W
0V
#6085000
1W
1V
#6090000
0W
0V
#6095000
1W
1V
#6100000
0W
0V
#6105000
1W
1V
#6110000
0W
0V
#6115000
1W
1V
#6120000
0W
0V
#6125000
1W
1V
#6130000
0W
0V
